<svg xmlns="http://www.w3.org/2000/svg" width="9.876" height="16" viewBox="0 0 9.876 16">
  <defs>
    <style>
      .cls-1 {
        fill: #fff;
        fill-rule: evenodd;
      }
    </style>
  </defs>
  <path id="Vector" class="cls-1" d="M912.057,9332.89l6.114,6.11-6.114,6.11,1.887,1.89,8-8-8-8Z" transform="translate(-912.062 -9331)"/>
</svg>
